[gd_scene load_steps=3 format=3 uid="uid://dcujhhxvfaixw"]

[ext_resource type="Script" path="res://world/new_score.gd" id="1_ddnuu"]
[ext_resource type="Theme" uid="uid://dfjp02w5iqx6i" path="res://world/menus.tres" id="2_ixkyc"]

[node name="NewScore" type="HBoxContainer" groups=["score"]]
offset_right = 40.0
offset_bottom = 40.0
script = ExtResource("1_ddnuu")

[node name="Write" type="LineEdit" parent="."]
unique_name_in_owner = true
visible = false
custom_minimum_size = Vector2(0, 75)
layout_mode = 2
size_flags_horizontal = 3
theme = ExtResource("2_ixkyc")
theme_override_font_sizes/font_size = 40
placeholder_text = "XXX"
max_length = 3
context_menu_enabled = false
shortcut_keys_enabled = false
middle_mouse_paste_enabled = false
selecting_enabled = false
deselect_on_focus_loss_enabled = false
caret_blink = true
caret_blink_interval = 0.5

[node name="Read" type="Label" parent="."]
unique_name_in_owner = true
layout_mode = 2
size_flags_horizontal = 3
theme = ExtResource("2_ixkyc")

[node name="Score" type="Label" parent="."]
unique_name_in_owner = true
layout_mode = 2
size_flags_horizontal = 3
theme = ExtResource("2_ixkyc")
