[gd_resource type="GradientTexture2D" load_steps=2 format=3 uid="uid://mso0rkcm2sm4"]

[sub_resource type="Gradient" id="Gradient_0hap7"]
offsets = PackedFloat32Array(0, 0.460784, 1)
colors = PackedColorArray(0, 0, 0, 1, 0.560784, 0.0823529, 0.560784, 1, 1, 1, 1, 1)

[resource]
gradient = SubResource("Gradient_0hap7")
width = 128
height = 128
fill = 1
fill_from = Vector2(0.357576, 0.351515)
